{
   "assetId": "<<ASSET_ID>>",
   "assetType": "Application",
   "applicationType": "Financial",
   "applicationName": "SampleIO",
   "applicationBuildName": "test-build",
   "soxFinancial": true,
   "ppi": true,
   "mnpi": false,
   "infoClass": "Restricted",
   "customerFacing": true,
   "externallyFacing": true,
   "assetTier": "Tier 01",
   "fairLending": false
}